Clusters:	70
Precision:	4.55421063224174%
		Cluster: 0
			Instance: 752
			Area: 66
			co, ca, ga, ct, pr, lb, tx, la, tn, pa, pe, mn, de, dc, hi, me, md, ma, mb, ut, mo, fraspm, mi, mt, qc, ms, va, ab, vi, ak, al, ar, vt, il, in, ia, az, id, nh, ks, nj, nm, nb, nc, nd, ne, nf, ny, ns, nt, ri, nv, wa, bc, wi, wv, fl, wy, on, ok, oh, sk, sc, ky, or, sd
		Cluster: 1
			Instance: 270
			Area: 40
			ca, ct, pr, lb, tx, la, mn, md, mb, mo, fraspm, mi, nu, mt, va, vi, ak, ar, vt, il, in, ks, nc, nd, nf, ny, ns, nt, ri, wa, bc, wi, wv, on, ok, oh, sk, ky, or, sd
		Cluster: 2
			Instance: 1015
			Area: 44
			dengl, lb, la, pa, pe, mn, de, dc, hi, yt, me, md, ma, mb, mo, fraspm, mi, nu, ms, va, al, ar, vt, il, in, ia, nh, ks, nm, nb, nc, nd, ne, nf, ny, ns, nt, ri, wi, wv, on, oh, ky, sd
		Cluster: 3
			Instance: 1
			Area: 0
			
		Cluster: 4
			Instance: 368
			Area: 10
			lb, mn, mb, va, ak, al, vt, nf, wa, on
		Cluster: 5
			Instance: 2005
			Area: 13
			pr, la, pa, hi, md, ma, va, al, il, az, ri, wi, or
		Cluster: 6
			Instance: 3
			Area: 0
			
		Cluster: 7
			Instance: 0
			Area: 0
			
		Cluster: 8
			Instance: 311
			Area: 9
			tx, hi, mo, ab, vt, ks, nm, bc, sk
		Cluster: 9
			Instance: 3447
			Area: 18
			ca, ct, pa, pe, de, dc, md, mb, mo, mi, va, ak, al, il, nd, ny, oh, ky
		Cluster: 10
			Instance: 2328
			Area: 45
			co, ca, ga, pr, tx, pa, pe, mn, dc, hi, me, md, ma, mb, ut, mo, mt, ms, ab, vi, ak, ar, vt, il, in, ia, az, id, ks, nm, nc, nd, ne, ny, nt, nv, wa, bc, wv, fl, wy, ok, sc, or, sd
		Cluster: 11
			Instance: 516
			Area: 2
			md, az
		Cluster: 12
			Instance: 2
			Area: 0
			
		Cluster: 13
			Instance: 1285
			Area: 35
			co, ca, ga, pr, tx, la, pe, de, dc, hi, md, ma, mo, mi, mt, ms, va, vi, al, il, az, id, nm, nc, ny, nv, wa, bc, wi, fl, on, oh, sc, ky, or
		Cluster: 14
			Instance: 1
			Area: 0
			
		Cluster: 15
			Instance: 1
			Area: 0
			
		Cluster: 16
			Instance: 524
			Area: 34
			ca, la, pe, mn, de, hi, me, ma, mb, nu, mt, ab, ak, ar, ia, az, id, nh, ks, nd, ne, nf, ny, nt, nv, wa, bc, wi, fl, on, oh, sk, or, sd
		Cluster: 17
			Instance: 1271
			Area: 68
			co, dengl, ca, ga, ct, pr, lb, tx, la, tn, pe, mn, de, dc, hi, yt, me, md, ma, mb, ut, mo, fraspm, mi, nu, mt, qc, ms, va, ab, vi, ak, al, ar, vt, il, in, ia, az, id, nh, ks, nj, nm, nb, nc, nd, ne, nf, ny, ns, nt, ri, nv, wa, bc, wi, wv, fl, wy, on, ok, oh, sk, sc, ky, or, sd
		Cluster: 18
			Instance: 0
			Area: 0
			
		Cluster: 19
			Instance: 1
			Area: 0
			
		Cluster: 20
			Instance: 0
			Area: 0
			
		Cluster: 21
			Instance: 1
			Area: 0
			
		Cluster: 22
			Instance: 631
			Area: 22
			co, ca, ga, tx, pe, hi, me, ut, mo, mt, ab, ak, id, nd, nv, wa, bc, wi, on, oh, ky, or
		Cluster: 23
			Instance: 433
			Area: 66
			co, dengl, ca, ga, ct, pr, lb, tx, la, tn, pa, pe, mn, de, dc, hi, me, md, ma, mb, ut, mo, fraspm, mi, mt, qc, ms, va, ab, vi, ak, al, ar, vt, il, in, ia, az, id, nh, ks, nj, nm, nb, nc, nd, ne, nf, ny, ns, ri, nv, wa, bc, wi, wv, fl, wy, on, ok, oh, sk, sc, ky, or, sd
		Cluster: 24
			Instance: 787
			Area: 10
			ct, pr, tx, dc, hi, md, ms, vi, al, az
		Cluster: 25
			Instance: 389
			Area: 34
			co, ca, ga, pr, tx, la, mn, hi, me, md, ut, mo, mt, va, ab, vi, ar, ia, az, id, ks, nm, nd, ne, nv, wa, fl, wy, ok, oh, sk, sc, or, sd
		Cluster: 26
			Instance: 1681
			Area: 68
			co, dengl, ca, ga, ct, pr, lb, tx, la, tn, pe, mn, de, dc, hi, yt, me, md, ma, mb, ut, mo, fraspm, mi, nu, mt, qc, ms, va, ab, vi, ak, al, ar, vt, il, in, ia, az, id, nh, ks, nj, nm, nb, nc, nd, ne, nf, ny, ns, nt, ri, nv, wa, bc, wi, wv, fl, wy, on, ok, oh, sk, sc, ky, or, sd
		Cluster: 27
			Instance: 1
			Area: 0
			
		Cluster: 28
			Instance: 295
			Area: 58
			co, ca, ga, ct, pr, tx, la, tn, pa, pe, mn, de, dc, hi, me, md, ma, ut, mo, fraspm, mt, va, ab, vi, al, ar, vt, il, in, ia, az, id, nh, ks, nm, nb, nc, nd, ne, nf, ny, ns, ri, nv, wa, bc, wi, wv, fl, wy, on, ok, oh, sk, sc, ky, or, sd
		Cluster: 29
			Instance: 224
			Area: 18
			ca, ga, pr, tx, la, pa, de, hi, md, ms, al, ar, in, nc, fl, ok, oh, or
		Cluster: 30
			Instance: 1
			Area: 0
			
		Cluster: 31
			Instance: 216
			Area: 18
			ca, pr, tx, la, pe, hi, md, ma, va, vi, al, vt, il, az, ny, fl, oh, or
		Cluster: 32
			Instance: 479
			Area: 30
			co, ca, tx, mn, me, ma, mb, ut, mo, mi, mt, ab, ak, vt, az, id, ks, nm, nd, ne, nt, nv, wa, bc, wy, on, ok, sk, or, sd
		Cluster: 33
			Instance: 539
			Area: 67
			co, dengl, ca, ga, ct, pr, lb, tx, la, tn, pe, mn, de, dc, hi, yt, me, md, ma, mb, ut, mo, fraspm, mi, nu, mt, qc, ms, va, ab, ak, al, ar, vt, il, in, ia, az, id, nh, ks, nj, nm, nb, nc, nd, ne, nf, ny, ns, nt, ri, nv, wa, bc, wi, wv, fl, wy, on, ok, oh, sk, sc, ky, or, sd
		Cluster: 34
			Instance: 4874
			Area: 68
			co, dengl, ca, ga, ct, pr, lb, tx, la, tn, pe, mn, de, dc, hi, yt, me, md, ma, mb, ut, mo, fraspm, mi, nu, mt, qc, ms, va, ab, vi, ak, al, ar, vt, il, in, ia, az, id, nh, ks, nj, nm, nb, nc, nd, ne, nf, ny, ns, nt, ri, nv, wa, bc, wi, wv, fl, wy, on, ok, oh, sk, sc, ky, or, sd
		Cluster: 35
			Instance: 1601
			Area: 9
			pr, la, dc, md, ms, al, il, az, ny
		Cluster: 36
			Instance: 1192
			Area: 12
			tx, pe, me, md, ma, il, az, nd, ny, ky, or, sd
		Cluster: 37
			Instance: 0
			Area: 0
			
		Cluster: 38
			Instance: 1
			Area: 0
			
		Cluster: 39
			Instance: 0
			Area: 0
			
		Cluster: 40
			Instance: 794
			Area: 8
			ca, pe, md, al, il, ny, wa, or
		Cluster: 41
			Instance: 0
			Area: 0
			
		Cluster: 42
			Instance: 1
			Area: 0
			
		Cluster: 43
			Instance: 1
			Area: 0
			
		Cluster: 44
			Instance: 1061
			Area: 49
			co, ca, ga, ct, pr, tx, la, tn, pa, pe, de, dc, hi, me, md, ma, mb, ut, mo, mi, mt, ms, va, ab, vi, al, ar, il, in, ia, az, ks, nm, nc, nd, ne, ny, nv, wa, bc, wv, fl, wy, ok, oh, sc, ky, or, sd
		Cluster: 45
			Instance: 0
			Area: 0
			
		Cluster: 46
			Instance: 1
			Area: 0
			
		Cluster: 47
			Instance: 657
			Area: 12
			de, dc, ma, mo, mi, ms, va, ar, az, ny, fl, ky
		Cluster: 48
			Instance: 1680
			Area: 41
			co, ca, ga, ct, tx, la, pa, pe, mn, hi, me, ma, mb, ut, mo, mi, mt, ms, ab, al, vt, ia, az, id, ks, nm, nc, nd, ne, ny, nv, wa, bc, fl, wy, on, ok, sk, sc, or, sd
		Cluster: 49
			Instance: 0
			Area: 0
			
		Cluster: 50
			Instance: 0
			Area: 0
			
		Cluster: 51
			Instance: 1337
			Area: 66
			co, dengl, ca, ga, ct, pr, lb, tx, la, tn, pe, mn, de, dc, hi, me, md, ma, mb, ut, mo, fraspm, mi, nu, mt, qc, ms, va, ab, vi, ak, al, ar, vt, il, in, ia, az, id, nh, ks, nj, nm, nb, nc, nd, ne, nf, ny, ns, ri, nv, wa, bc, wi, wv, fl, wy, on, ok, oh, sk, sc, ky, or, sd
		Cluster: 52
			Instance: 1
			Area: 0
			
		Cluster: 53
			Instance: 0
			Area: 0
			
		Cluster: 54
			Instance: 1
			Area: 0
			
		Cluster: 55
			Instance: 0
			Area: 0
			
		Cluster: 56
			Instance: 830
			Area: 58
			co, ca, ga, ct, pr, tx, la, tn, pe, mn, de, dc, hi, me, md, ma, mb, ut, mo, mi, mt, qc, ms, va, vi, al, ar, vt, il, in, ia, az, id, nh, ks, nj, nm, nb, nc, nd, ne, ny, ns, ri, nv, wa, bc, wi, wv, fl, wy, on, ok, oh, sc, ky, or, sd
		Cluster: 57
			Instance: 220
			Area: 5
			ca, id, nv, wa, or
		Cluster: 58
			Instance: 1
			Area: 0
			
		Cluster: 59
			Instance: 1
			Area: 0
			
		Cluster: 60
			Instance: 745
			Area: 8
			ca, pr, hi, ak, az, nv, wa, or
		Cluster: 61
			Instance: 1
			Area: 0
			
		Cluster: 62
			Instance: 0
			Area: 0
			
		Cluster: 63
			Instance: 1
			Area: 0
			
		Cluster: 64
			Instance: 1
			Area: 0
			
		Cluster: 65
			Instance: 0
			Area: 0
			
		Cluster: 66
			Instance: 1
			Area: 0
			
		Cluster: 67
			Instance: 0
			Area: 0
			
		Cluster: 68
			Instance: 0
			Area: 0
			
		Cluster: 69
			Instance: 0
			Area: 0
			
