Clusters:	40
Precision:	4.92797791897875%
		Cluster: 0
			Instance: 3440
			Area: 47
			co, ca, ga, ct, pr, tx, la, pa, mn, dc, hi, me, md, ma, mb, ut, mo, mi, mt, qc, ms, va, ab, vi, vt, il, in, ia, az, nh, ks, nj, nm, nb, nd, ny, wi, fl, wy, on, ok, oh, sk, sc, ky, or, sd
		Cluster: 1
			Instance: 674
			Area: 32
			co, ct, tx, pe, mn, yt, me, md, ma, ut, mi, mt, qc, ms, va, ak, vt, il, nh, ks, nm, nb, nd, ne, ny, nt, wi, wy, on, ok, sk, ky
		Cluster: 2
			Instance: 4172
			Area: 61
			dengl, ca, ga, ct, pr, lb, tx, la, tn, pa, pe, mn, de, dc, hi, yt, me, md, ma, mb, mo, fraspm, mi, nu, mt, qc, ms, va, ab, vi, ak, ar, vt, il, in, ia, az, nh, ks, nj, nm, nb, nd, ne, nf, ny, ns, nt, ri, nv, wi, wv, fl, on, ok, oh, sk, sc, ky, or, sd
		Cluster: 3
			Instance: 897
			Area: 43
			co, ca, ga, pr, lb, tx, la, tn, pa, pe, mn, hi, me, md, ma, ut, mo, fraspm, mi, mt, qc, ms, va, ab, ak, vt, il, nh, nj, nm, nd, nf, ny, ns, wi, wv, fl, wy, on, ok, oh, or, sd
		Cluster: 4
			Instance: 1
			Area: 0
			
		Cluster: 5
			Instance: 207
			Area: 23
			co, ca, pr, tx, la, hi, me, md, ma, mo, ms, ar, az, ks, nj, nm, ny, ri, fl, wy, ok, sc, sd
		Cluster: 6
			Instance: 0
			Area: 0
			
		Cluster: 7
			Instance: 345
			Area: 56
			co, dengl, ca, ct, pr, lb, la, tn, pe, mn, de, dc, hi, yt, me, md, ma, mb, ut, mo, fraspm, mi, nu, mt, qc, ms, va, ab, ak, vt, il, in, ia, az, nh, ks, nj, nm, nb, nc, nd, nf, ny, ns, nt, ri, nv, wi, wv, on, oh, sk, sc, ky, or, sd
		Cluster: 8
			Instance: 4481
			Area: 68
			co, dengl, ca, ga, ct, pr, lb, tx, la, tn, pe, mn, de, dc, hi, yt, me, md, ma, mb, ut, mo, fraspm, mi, nu, mt, qc, ms, va, ab, vi, ak, al, ar, vt, il, in, ia, az, id, nh, ks, nj, nm, nb, nc, nd, ne, nf, ny, ns, nt, ri, nv, wa, bc, wi, wv, fl, wy, on, ok, oh, sk, sc, ky, or, sd
		Cluster: 9
			Instance: 734
			Area: 29
			ca, ct, tx, la, pe, de, dc, md, ma, mb, ut, mo, mi, ms, va, ab, ar, az, ks, nj, nm, ny, nv, fl, on, ok, sk, sc, ky
		Cluster: 10
			Instance: 1284
			Area: 29
			co, ca, pr, tx, la, pa, pe, me, md, ma, mb, ut, mo, mt, qc, ms, ab, ak, ar, vt, az, ks, nm, ny, nt, nv, wi, wy, on
		Cluster: 11
			Instance: 847
			Area: 67
			co, dengl, ca, ga, ct, pr, lb, tx, la, tn, pe, mn, de, dc, hi, yt, me, md, ma, mb, ut, mo, fraspm, mi, nu, mt, qc, ms, va, ab, ak, al, ar, vt, il, in, ia, az, id, nh, ks, nj, nm, nb, nc, nd, ne, nf, ny, ns, nt, ri, nv, wa, bc, wi, wv, fl, wy, on, ok, oh, sk, sc, ky, or, sd
		Cluster: 12
			Instance: 2680
			Area: 69
			co, dengl, ca, ga, ct, pr, lb, tx, la, tn, pa, pe, mn, de, dc, hi, yt, me, md, ma, mb, ut, mo, fraspm, mi, nu, mt, qc, ms, va, ab, vi, ak, al, ar, vt, il, in, ia, az, id, nh, ks, nj, nm, nb, nc, nd, ne, nf, ny, ns, nt, ri, nv, wa, bc, wi, wv, fl, wy, on, ok, oh, sk, sc, ky, or, sd
		Cluster: 13
			Instance: 3930
			Area: 39
			co, ca, ga, ct, pr, tx, la, pa, pe, dc, me, md, ma, mb, ut, mo, mi, mt, qc, va, vi, ak, vt, il, in, ia, ks, nj, nm, nb, nd, ny, ns, nv, on, ok, oh, sc, ky
		Cluster: 14
			Instance: 1
			Area: 0
			
		Cluster: 15
			Instance: 1
			Area: 0
			
		Cluster: 16
			Instance: 0
			Area: 0
			
		Cluster: 17
			Instance: 1
			Area: 0
			
		Cluster: 18
			Instance: 1
			Area: 0
			
		Cluster: 19
			Instance: 0
			Area: 0
			
		Cluster: 20
			Instance: 265
			Area: 35
			co, ca, ga, pr, tx, la, tn, pe, de, hi, md, ma, ut, mo, mi, ms, va, vi, ar, il, az, ks, nj, nm, ne, ri, nv, wv, fl, on, ok, oh, sc, ky, or
		Cluster: 21
			Instance: 1
			Area: 0
			
		Cluster: 22
			Instance: 205
			Area: 44
			ca, ga, ct, pr, la, pa, pe, mn, de, dc, me, md, ma, mb, mo, fraspm, mi, qc, ms, va, ab, ak, ar, vt, il, in, ia, nh, ks, nj, nb, nf, ny, ns, ri, wi, wv, fl, on, ok, oh, sk, ky, or
		Cluster: 23
			Instance: 1
			Area: 0
			
		Cluster: 24
			Instance: 1979
			Area: 68
			co, dengl, ca, ga, ct, pr, lb, tx, la, tn, pe, mn, de, dc, hi, yt, me, md, ma, mb, ut, mo, fraspm, mi, nu, mt, qc, ms, va, ab, vi, ak, al, ar, vt, il, in, ia, az, id, nh, ks, nj, nm, nb, nc, nd, ne, nf, ny, ns, nt, ri, nv, wa, bc, wi, wv, fl, wy, on, ok, oh, sk, sc, ky, or, sd
		Cluster: 25
			Instance: 289
			Area: 46
			co, ca, ga, ct, pr, tx, la, tn, pe, de, dc, hi, me, md, ma, ut, mo, mi, qc, ms, va, vi, ar, il, in, ia, az, nh, ks, nj, nm, nb, nc, ny, ns, ri, nv, wi, wv, fl, on, ok, oh, sc, ky, or
		Cluster: 26
			Instance: 453
			Area: 8
			tx, ut, qc, ab, il, ks, nm, sc
		Cluster: 27
			Instance: 0
			Area: 0
			
		Cluster: 28
			Instance: 0
			Area: 0
			
		Cluster: 29
			Instance: 442
			Area: 51
			ca, ga, ct, pr, tx, la, tn, pa, pe, mn, de, dc, hi, me, md, ma, ut, mo, mi, qc, ms, va, ab, vi, ar, vt, il, in, ia, az, nh, ks, nj, nm, nb, nc, ne, nf, ny, ns, ri, wi, wv, fl, wy, on, ok, oh, sc, ky, or
		Cluster: 30
			Instance: 0
			Area: 0
			
		Cluster: 31
			Instance: 1
			Area: 0
			
		Cluster: 32
			Instance: 581
			Area: 21
			ca, ga, pr, tx, pe, hi, me, md, ma, ut, va, vi, vt, il, az, ks, nm, ny, nv, fl, oh
		Cluster: 33
			Instance: 469
			Area: 61
			co, ca, ga, ct, pr, lb, tx, la, tn, pa, pe, mn, de, dc, hi, me, md, ma, mb, ut, mo, fraspm, mi, mt, qc, ms, va, ab, vi, ak, ar, vt, il, in, ia, nh, ks, nj, nm, nb, nc, nd, ne, nf, ny, ns, nt, ri, nv, wi, wv, fl, wy, on, ok, oh, sk, sc, ky, or, sd
		Cluster: 34
			Instance: 250
			Area: 31
			ca, ga, ct, pr, tx, la, tn, pa, pe, de, dc, hi, md, mt, ms, va, vi, ar, il, az, nj, nm, nc, ny, ri, nv, fl, ok, sc, ky, or
		Cluster: 35
			Instance: 4610
			Area: 69
			co, dengl, ca, ga, ct, pr, lb, tx, la, tn, pa, pe, mn, de, dc, hi, yt, me, md, ma, mb, ut, mo, fraspm, mi, nu, mt, qc, ms, va, ab, vi, ak, al, ar, vt, il, in, ia, az, id, nh, ks, nj, nm, nb, nc, nd, ne, nf, ny, ns, nt, ri, nv, wa, bc, wi, wv, fl, wy, on, ok, oh, sk, sc, ky, or, sd
		Cluster: 36
			Instance: 1288
			Area: 33
			co, ga, ct, pr, lb, tx, la, pe, dc, me, md, ma, mo, mi, qc, ms, ab, vi, ar, vt, il, in, ks, nd, ny, wv, on, ok, oh, sc, ky, or, sd
		Cluster: 37
			Instance: 250
			Area: 57
			co, ca, ct, pr, lb, tx, la, tn, pe, mn, de, dc, hi, me, md, ma, mb, ut, mo, fraspm, mi, mt, qc, ms, va, ab, vi, ar, vt, il, in, ia, az, nh, ks, nj, nm, nb, nc, nd, ne, nf, ny, ns, ri, wi, wv, fl, wy, on, ok, oh, sk, sc, ky, or, sd
		Cluster: 38
			Instance: 1
			Area: 0
			
		Cluster: 39
			Instance: 0
			Area: 0
			
