Clusters:	50
Precision:	9.34418216842529%
		Cluster: 0
			Instance: 436
			Area: 64
			co, dengl, ca, ga, ct, pr, lb, tx, tn, pe, mn, de, dc, yt, me, md, ma, mb, ut, mo, fraspm, mi, nu, mt, qc, ms, va, ab, vi, ak, al, ar, vt, il, in, ia, az, id, nh, ks, nj, nm, nb, nc, nd, ne, nf, ny, ns, nt, ri, nv, wa, bc, wi, wv, fl, on, ok, oh, sk, sc, ky, or
		Cluster: 1
			Instance: 1976
			Area: 58
			co, dengl, ca, ga, ct, lb, tn, pe, mn, de, dc, yt, me, md, ma, mb, mo, fraspm, mi, nu, mt, qc, ms, va, ab, ak, al, ar, vt, il, in, ia, az, id, nh, ks, nj, nb, nc, nd, ne, nf, ns, nt, ri, nv, wa, bc, wi, wv, wy, on, ok, oh, sk, sc, or, sd
		Cluster: 2
			Instance: 221
			Area: 52
			co, ca, ga, ct, pr, tx, tn, pe, mn, de, dc, me, md, ma, mb, ut, mo, mi, mt, qc, va, ab, ak, al, vt, il, in, ia, az, id, nh, nj, nb, nc, nd, nf, ny, ns, nt, wa, bc, wi, wv, fl, wy, on, ok, oh, sk, sc, ky, or
		Cluster: 3
			Instance: 1
			Area: 0
			
		Cluster: 4
			Instance: 1238
			Area: 16
			ca, hi, me, md, ma, ut, ms, ar, az, id, nm, nv, wi, fl, sc, or
		Cluster: 5
			Instance: 383
			Area: 19
			ca, tx, pe, me, ma, ut, mo, qc, va, id, nm, nb, nv, wa, bc, wi, on, ky, or
		Cluster: 6
			Instance: 2015
			Area: 19
			ga, pr, hi, md, ma, va, vi, al, il, nj, nm, nc, ri, wa, bc, wi, on, sc, or
		Cluster: 7
			Instance: 730
			Area: 52
			co, ca, ga, ct, pr, tx, tn, pe, de, dc, hi, yt, md, ma, ut, mo, mi, mt, ms, va, ab, vi, ak, al, ar, vt, il, in, ia, az, id, nh, ks, nj, nm, nc, nf, ny, ns, ri, nv, wa, bc, wv, fl, wy, on, ok, oh, sc, ky, or
		Cluster: 8
			Instance: 1
			Area: 0
			
		Cluster: 9
			Instance: 1866
			Area: 13
			ca, ga, ct, pr, dc, md, ma, ms, va, al, il, nj, fl
		Cluster: 10
			Instance: 3517
			Area: 33
			ca, ga, ct, tx, pe, de, dc, me, md, ma, mb, mo, mi, mt, qc, va, ab, ak, al, vt, il, ia, id, nj, nm, nb, nc, ne, ns, wa, bc, oh, sc
		Cluster: 11
			Instance: 1599
			Area: 64
			co, ca, ga, ct, pr, tx, la, tn, pe, mn, de, dc, hi, me, md, ma, mb, ut, mo, mi, nu, mt, qc, ms, va, ab, vi, ak, al, ar, vt, il, in, ia, az, id, nh, ks, nj, nm, nb, nc, nd, ne, nf, ny, ns, nt, ri, nv, wa, bc, wi, wv, fl, wy, on, ok, oh, sk, sc, ky, or, sd
		Cluster: 12
			Instance: 235
			Area: 31
			ca, ga, pr, tx, tn, de, dc, md, ma, ut, mo, mi, qc, ms, va, vi, al, ar, il, in, nj, nc, ny, wa, wi, fl, on, ok, oh, sc, ky
		Cluster: 13
			Instance: 1535
			Area: 57
			co, ca, ga, ct, pr, tx, la, tn, pe, de, dc, hi, me, md, ma, mb, ut, mo, mi, mt, ms, va, ab, vi, ak, al, ar, vt, il, in, ia, az, id, nh, ks, nj, nm, nc, nd, ne, ny, ns, ri, nv, wa, bc, wi, wv, fl, wy, on, ok, oh, sc, ky, or, sd
		Cluster: 14
			Instance: 0
			Area: 0
			
		Cluster: 15
			Instance: 1
			Area: 0
			
		Cluster: 16
			Instance: 202
			Area: 58
			co, dengl, ca, ct, lb, tx, pe, mn, de, dc, hi, yt, me, md, ma, mb, ut, mo, fraspm, mi, nu, mt, qc, va, ab, ak, al, vt, il, in, ia, az, id, nh, ks, nj, nb, nc, nd, ne, nf, ny, ns, nt, ri, nv, wa, bc, wi, wv, fl, wy, on, oh, sk, ky, or, sd
		Cluster: 17
			Instance: 1
			Area: 0
			
		Cluster: 18
			Instance: 895
			Area: 32
			co, ca, ga, pr, lb, tx, tn, dc, md, ma, ut, mo, fraspm, mi, qc, va, ak, al, il, az, nj, nm, nc, nd, nf, nv, bc, wy, on, oh, sc, or
		Cluster: 19
			Instance: 1
			Area: 0
			
		Cluster: 20
			Instance: 2308
			Area: 68
			co, ca, ga, ct, pr, lb, tx, la, tn, pa, pe, mn, de, dc, hi, yt, me, md, ma, mb, ut, mo, fraspm, mi, nu, mt, qc, ms, va, ab, vi, ak, al, ar, vt, il, in, ia, az, id, nh, ks, nj, nm, nb, nc, nd, ne, nf, ny, ns, nt, ri, nv, wa, bc, wi, wv, fl, wy, on, ok, oh, sk, sc, ky, or, sd
		Cluster: 21
			Instance: 1
			Area: 0
			
		Cluster: 22
			Instance: 251
			Area: 5
			ca, ut, az, id, nv
		Cluster: 23
			Instance: 1094
			Area: 48
			co, ca, ga, ct, pr, tx, tn, pe, mn, de, hi, me, md, ma, mb, ut, mo, mi, mt, va, ab, vi, al, ar, vt, il, ia, az, id, ks, nm, nc, nd, ne, ny, nt, nv, wa, bc, wi, fl, wy, ok, oh, sk, sc, or, sd
		Cluster: 24
			Instance: 470
			Area: 36
			co, dengl, ca, lb, tx, pe, mn, dc, yt, me, md, ma, mb, mo, fraspm, mi, nu, mt, qc, ab, ak, vt, az, id, nh, nb, nf, ns, nt, nv, wa, bc, on, oh, sk, or
		Cluster: 25
			Instance: 1
			Area: 0
			
		Cluster: 26
			Instance: 1310
			Area: 47
			co, ca, ga, tx, tn, pe, de, yt, me, md, ma, ut, mo, fraspm, mi, mt, qc, va, ab, ak, al, ar, vt, il, in, ia, az, id, nh, ks, nj, nm, nc, nd, nf, ny, ns, nv, wa, bc, wi, wy, on, oh, sc, ky, or
		Cluster: 27
			Instance: 0
			Area: 0
			
		Cluster: 28
			Instance: 1196
			Area: 25
			co, ca, ga, ct, pr, tx, pe, dc, hi, md, ma, ut, ms, vi, al, az, nj, nm, nc, ny, nv, fl, oh, sc, or
		Cluster: 29
			Instance: 0
			Area: 0
			
		Cluster: 30
			Instance: 246
			Area: 12
			co, ca, ma, ut, mi, az, nj, ny, nv, wa, bc, or
		Cluster: 31
			Instance: 737
			Area: 48
			co, ca, ga, pr, tx, pe, de, dc, hi, me, md, ma, ut, mo, fraspm, mi, mt, ms, va, vi, ak, al, ar, il, az, id, nh, nj, nm, nb, nc, ne, nf, ny, ns, nv, wa, bc, wi, fl, wy, on, ok, oh, sc, ky, or, sd
		Cluster: 32
			Instance: 1
			Area: 0
			
		Cluster: 33
			Instance: 1
			Area: 0
			
		Cluster: 34
			Instance: 1915
			Area: 60
			co, ca, ga, ct, pr, tx, la, tn, pe, mn, de, hi, yt, me, md, ma, mb, ut, mo, mi, nu, mt, qc, ms, va, ab, vi, ak, al, ar, vt, il, in, ia, az, id, ks, nj, nm, nb, nc, nd, ne, ny, nt, ri, nv, wa, bc, wi, wv, fl, wy, on, ok, oh, sk, sc, or, sd
		Cluster: 35
			Instance: 767
			Area: 68
			co, dengl, ca, ga, ct, pr, lb, tx, la, tn, pe, mn, de, dc, hi, yt, me, md, ma, mb, ut, mo, fraspm, mi, nu, mt, qc, ms, va, ab, vi, ak, al, ar, vt, il, in, ia, az, id, nh, ks, nj, nm, nb, nc, nd, ne, nf, ny, ns, nt, ri, nv, wa, bc, wi, wv, fl, wy, on, ok, oh, sk, sc, ky, or, sd
		Cluster: 36
			Instance: 3400
			Area: 68
			co, dengl, ca, ga, ct, pr, lb, tx, la, tn, pe, mn, de, dc, hi, yt, me, md, ma, mb, ut, mo, fraspm, mi, nu, mt, qc, ms, va, ab, vi, ak, al, ar, vt, il, in, ia, az, id, nh, ks, nj, nm, nb, nc, nd, ne, nf, ny, ns, nt, ri, nv, wa, bc, wi, wv, fl, wy, on, ok, oh, sk, sc, ky, or, sd
		Cluster: 37
			Instance: 1436
			Area: 53
			co, ca, ct, lb, tx, tn, pe, mn, de, hi, yt, me, md, ma, mb, ut, mo, mi, nu, mt, qc, va, ab, ak, vt, il, in, ia, az, id, nh, ks, nm, nb, nd, ne, nf, ny, ns, nt, ri, nv, wa, bc, wi, wv, wy, on, ok, oh, sk, or, sd
		Cluster: 38
			Instance: 0
			Area: 0
			
		Cluster: 39
			Instance: 0
			Area: 0
			
		Cluster: 40
			Instance: 0
			Area: 0
			
		Cluster: 41
			Instance: 1
			Area: 0
			
		Cluster: 42
			Instance: 0
			Area: 0
			
		Cluster: 43
			Instance: 1
			Area: 0
			
		Cluster: 44
			Instance: 1275
			Area: 18
			ga, tx, pe, md, ma, mo, qc, ms, ab, al, il, in, nm, nc, nd, oh, sc, sd
		Cluster: 45
			Instance: 0
			Area: 0
			
		Cluster: 46
			Instance: 761
			Area: 12
			ca, ga, pr, ma, ut, ab, ak, az, id, nv, bc, wi
		Cluster: 47
			Instance: 1
			Area: 0
			
		Cluster: 48
			Instance: 0
			Area: 0
			
		Cluster: 49
			Instance: 755
			Area: 16
			ga, dc, me, md, ma, mo, mi, va, vi, ar, nj, nc, bc, fl, sc, ky
